…
## # A tibble: 1 x 1
##    stat
##   <dbl>
## 1 0.933

null_dist <- movies %>%
  specify(rating ~ spielberg_burton) %>%
  hypothesize(null = "independence") %>%
  generate(reps = 1000, type = "permute") %>%
  calculate(stat = "diff in means", order = c(TRUE, FALSE))
null_dist

## # A tibble: 1,000 x 2
##    replicate    stat
##        <int>   <dbl>
##  1         1 -0.210 
##  2         2 -0.0878
##  3         3 -0.218 
##  4         4 -0.358 
##  5         5 -0.140 
##  6         6 -0.0592
##  7         7  0.0473
##  8         8 -0.0255
##  9         9  0.0733
## 10        10 -0.109 
## # ... with 990 more rows
…
