…
Then, we sort the observation to find the highest individual contributions.

CA_2016 %>%
  arrange(desc(contb_receipt_amt))

## # A tibble: 1,292,843 x 4
##    cand_nm                   contb_receipt_amt   zip contb_date
##    <chr>                                 <dbl> <dbl> <date>    
##  1 Walker, Scott                         10800 90680 2015-07-07
##  2 Walker, Scott                         10800 92677 2015-07-06
##  3 Cruz, Rafael Edward 'Ted'             10800 91604 2015-12-21
##  4 Cruz, Rafael Edward 'Ted'             10800 93401 2015-06-12
##  5 Cruz, Rafael Edward 'Ted'             10800 90024 2015-06-24
##  6 Cruz, Rafael Edward 'Ted'             10800 90034 2015-12-08
##  7 Cruz, Rafael Edward 'Ted'             10800 93013 2015-12-31
##  8 Cruz, Rafael Edward 'Ted'             10800 90211 2015-12-21
##  9 Cruz, Rafael Edward 'Ted'             10800 90036 2015-12-17
## 10 Cruz, Rafael Edward 'Ted'             10800 92091 2015-12-14
## # ... with 1,292,833 more rows
…
